[
  {
    "lat": 37.649034,
    "lng": -98.261719,
    "name": "アメリカ",
    "emoji": "🇺🇸"
  },
  {
    "lat": 42.521009,
    "lng": 12.777344,
    "name": "イタリア",
    "emoji": "🇮🇹"
  },
  {
    "lat": 52.343063,
    "lng": 5.590039,
    "name": "オランダ",
    "emoji": "🇳🇱"
  },
  {
    "lat": 40.044438,
    "lng": -3.735352,
    "name": "スペイン",
    "emoji": "🇪🇸"
  },
  {
    "lat": 48.71042,
    "lng": 19.751172,
    "name": "スロバキア",
    "emoji": "🇸🇰"
  },
  {
    "lat": 45.920587,
    "lng": 14.589844,
    "name": "スロベニア",
    "emoji": "🇸🇮"
  },
  {
    "lat": 34.415973,
    "lng": 9.228516,
    "name": "チュニジア",
    "emoji": "🇹🇳"
  },
  {
    "lat": 51.944265,
    "lng": 10.854492,
    "name": "ドイツ",
    "emoji": "🇩🇪"
  },
  {
    "lat": 46.769968,
    "lng": 18.852539,
    "name": "ハンガリー",
    "emoji": "🇭🇺"
  },
  {
    "lat": 47.368594,
    "lng": 14.150391,
    "name": "オーストリア",
    "emoji": "🇦🇹"
  },
  {
    "lat": 55.640399,
    "lng": 8.986816,
    "name": "デンマーク",
    "emoji": "🇩🇰"
  },
  {
    "lat": 41.853196,
    "lng": 12.941895,
    "name": "バチカン市国",
    "emoji": "🇻🇦"
  },
  {
    "lat": 49.69847,
    "lng": 16.008648,
    "name": "チェコ",
    "emoji": "🇨🇿"
  },
  {
    "lat": 60.543775,
    "lng": 23.378906,
    "name": "フィンランド",
    "emoji": "🇫🇮"
  }
]
